Analysis of World Values Survey Data • flintyR
…
## Load packages
library(tidyverse)

## Load the data
## This file can be downloaded with registration from the WVS website
wvs <- readRDS("ex_data/WVS/F00007762-WV6_Data_R_v20180912.Rds")

# How many samples and how many features?
dim(wvs)
#> [1] 89565   440

# Show the wvs tibble before processing...
wvs
#> # A tibble: 89,565 x 440
#>       V1    V2   V2A    V3    V4    V5    V6    V7    V8    V9   V10   V11   V12
#>    <dbl> <dbl> <dbl> <dbl> <dbl> <dbl> <dbl> <dbl> <dbl> <dbl> <dbl> <dbl> <dbl>
#>  1     6    12    12     1     1     1     1    -2     1     1     2     1     1
#>  2     6    12    12     2     1     2     3     4     2     2     2     2     2
#>  3     6    12    12     3     1     3     2     4     2     1     2     2     2
#>  4     6    12    12     4     1     1     3     4     3     1     2     1     2
#>  5     6    12    12     5     1     1     1     2     1     1     1     3     2
#>  6     6    12    12     6     1     2     2     2     4     1     2     1     2
#>  7     6    12    12     7     1     1     1     1     1     1     2     2     1
#>  8     6    12    12     8     1     1     1     1     2     2     2     1     2
#>  9     6    12    12     9     1     1     1     2     2     2     2     2     2
#> 10     6    12    12    10     1     1     1     2     1     1     1     1     2
#> # … with 89,555 more rows, and 427 more variables: V13 <dbl>, V14 <dbl>,
#> #   V15 <dbl>, V16 <dbl>, V17 <dbl>, V18 <dbl>, V19 <dbl>, V20 <dbl>,
#> #   V21 <dbl>, V22 <dbl>, V23 <dbl>, V24 <dbl>, V25 <dbl>, V26 <dbl>,
#> #   V27 <dbl>, V28 <dbl>, V29 <dbl>, V30 <dbl>, V31 <dbl>, V32 <dbl>,
#> #   V33 <dbl>, V34 <dbl>, V35 <dbl>, V36 <dbl>, V37 <dbl>, V38 <dbl>,
#> #   V39 <dbl>, V40 <dbl>, V41 <dbl>, V42 <dbl>, V43 <dbl>, V44 <dbl>,
#> #   V44_ES <dbl>, V45 <dbl>, V46 <dbl>, V47 <dbl>, V48 <dbl>, V49 <dbl>,
#> #   V50 <dbl>, V51 <dbl>, V52 <dbl>, V53 <dbl>, V54 <dbl>, V55 <dbl>,
#> #   V56 <dbl>, V56_NZ <dbl>, V57 <dbl>, V58 <dbl>, V59 <dbl>, V60 <dbl>,
…
