Analysis of World Values Survey Data • flintyR
…
## Load packages
library(tidyverse)

## Load the data
## This file can be downloaded with registration from the WVS website
wvs <- readRDS("ex_data/WVS/F00007762-WV6_Data_R_v20180912.Rds")

# How many samples and how many features?
dim(wvs)
#> [1] 89565   440

# Show the wvs tibble before processing...
wvs
#> # A tibble: 89,565 × 440
#>    V1     V2     V2A    V3    V4    V5    V6    V7    V8    V9    V10   V11   V12  
#>    <labe> <labe> <labe> <lab> <lab> <lab> <lab> <lab> <lab> <lab> <lab> <lab> <lab>
#>  1 6      12     12      1    1     1     1     -2    1     1     2     1     1    
#>  2 6      12     12      2    1     2     3      4    2     2     2     2     2    
#>  3 6      12     12      3    1     3     2      4    2     1     2     2     2    
#>  4 6      12     12      4    1     1     3      4    3     1     2     1     2    
#>  5 6      12     12      5    1     1     1      2    1     1     1     3     2    
#>  6 6      12     12      6    1     2     2      2    4     1     2     1     2    
#>  7 6      12     12      7    1     1     1      1    1     1     2     2     1    
#>  8 6      12     12      8    1     1     1      1    2     2     2     1     2    
#>  9 6      12     12      9    1     1     1      2    2     2     2     2     2    
#> 10 6      12     12     10    1     1     1      2    1     1     1     1     2    
#> # … with 89,555 more rows, and 427 more variables: V13 <labelled>, V14 <labelled>,
#> #   V15 <labelled>, V16 <labelled>, V17 <labelled>, V18 <labelled>,
#> #   V19 <labelled>, V20 <labelled>, V21 <labelled>, V22 <labelled>,
#> #   V23 <labelled>, V24 <labelled>, V25 <labelled>, V26 <labelled>,
#> #   V27 <labelled>, V28 <labelled>, V29 <labelled>, V30 <labelled>,
#> #   V31 <labelled>, V32 <labelled>, V33 <labelled>, V34 <labelled>,
#> #   V35 <labelled>, V36 <labelled>, V37 <labelled>, V38 <labelled>, …
…
